module github.com/fgiannotti/car-pooling-challenge-fgiannotti

go 1.17

require (
	github.com/gin-gonic/gin v1.7.7
	github.com/golang/mock v1.6.0
	github.com/stretchr/testify v1.7.0
	go.uber.org/zap v1.21.0
)

require (
	github.com/benbjohnson/clock v1.1.0 // indirect
	github.com/davecgh/go-spew v1.1.1 // indirect
	github.com/gin-contrib/sse v0.1.0 // indirect
	github.com/go-playground/locales v0.13.0 // indirect
	github.com/go-playground/universal-translator v0.17.0 // indirect
	github.com/go-playground/validator/v10 v10.4.1 // indirect
	github.com/golang/protobuf v1.3.3 // indirect
	github.com/json-iterator/go v1.1.9 // indirect
	github.com/leodido/go-urn v1.2.0 // indirect
	github.com/mattn/go-isatty v0.0.12 // indirect
	github.com/modern-go/concurrent v0.0.0-20180228061459-e0a39a4cb421 // indirect
	github.com/modern-go/reflect2 v0.0.0-20180701023420-4b7aa43c6742 // indirect
	github.com/pmezard/go-difflib v1.0.0 // indirect
	github.com/ugorji/go/codec v1.1.7 // indirect
	go.uber.org/atomic v1.7.0 // indirect
	go.uber.org/multierr v1.6.0 // indirect
	golang.org/x/crypto v0.0.0-20220208050332-20e1d8d225ab // indirect
	golang.org/x/sys v0.0.0-20210615035016-665e8c7367d1 // indirect
	gopkg.in/yaml.v2 v2.2.8 // indirect
	gopkg.in/yaml.v3 v3.0.0-20210107192922-496545a6307b // indirect
)
